<svg xmlns="http://www.w3.org/2000/svg" viewBox="995 9094.109 17.577 16.796">
  <defs>
    <style>
      .cls-1 {
        fill: #b2b2b2;
      }
    </style>
  </defs>
  <g id="linkedin-logo" transform="translate(995 9094.11)">
    <path id="LinkedIn" class="cls-1" d="M17.577,19.856v6.5H13.81V20.291c0-1.523-.545-2.563-1.909-2.563a2.061,2.061,0,0,0-1.933,1.378,2.578,2.578,0,0,0-.125.919v6.329H6.075s.051-10.269,0-11.333H9.843v1.606c-.008.012-.018.025-.025.037h.025v-.037a3.742,3.742,0,0,1,3.4-1.873C15.718,14.755,17.577,16.375,17.577,19.856ZM2.133,9.558a1.964,1.964,0,1,0-.05,3.917h.025a1.965,1.965,0,1,0,.025-3.917ZM.224,26.354H3.991V15.021H.224Z" transform="translate(0 -9.558)"/>
  </g>
</svg>
