<svg xmlns="http://www.w3.org/2000/svg" xmlns:xlink="http://www.w3.org/1999/xlink" viewBox="-508.75 -4506 71.5 71.5">
  <defs>
    <style>
      .cls-1, .cls-4 {
        fill: none;
      }

      .cls-1 {
        stroke: #0091ea;
        stroke-width: 6px;
      }

      .cls-2 {
        fill: #fafafa;
      }

      .cls-3 {
        fill: #005b92;
      }

      .cls-5 {
        fill: #2ea1f1;
      }

      .cls-6 {
        filter: url(#Rectangle_125);
      }

      .cls-7 {
        filter: url(#Path_194);
      }
    </style>
    <filter id="Path_194" x="-496.747" y="-4505.873" width="34.025" height="34.024" filterUnits="userSpaceOnUse">
      <feOffset dx="2" input="SourceAlpha"/>
      <feGaussianBlur stdDeviation="3" result="blur"/>
      <feFlood flood-opacity="0.38"/>
      <feComposite operator="in" in2="blur"/>
      <feComposite in="SourceGraphic"/>
    </filter>
    <filter id="Rectangle_125" x="-477.99" y="-4471.86" width="11.321" height="13.642" filterUnits="userSpaceOnUse">
      <feOffset input="SourceAlpha"/>
      <feGaussianBlur stdDeviation="1.5" result="blur-2"/>
      <feFlood flood-color="#002237" flood-opacity="0.302"/>
      <feComposite operator="in" in2="blur-2"/>
      <feComposite in="SourceGraphic"/>
    </filter>
  </defs>
  <g id="Group_931" data-name="Group 931" transform="translate(-1554.75 -6316)">
    <g id="Group_871" data-name="Group 871" transform="translate(1055.127 1819.127)">
      <path id="Path_36" data-name="Path 36" class="cls-1" d="M23.823,2.5A21.2,21.2,0,1,1,16.2,3.9,21.323,21.323,0,0,1,23.823,2.5Z" transform="translate(3.205 3.205)"/>
      <path id="Path_193" data-name="Path 193" class="cls-2" d="M.5.5H10.828l9.921,14.041-6.208,10.1H.5Z" transform="translate(-0.5 4.334)"/>
      <g class="cls-7" transform="matrix(1, 0, 0, 1, 499.62, 4496.87)">
        <path id="Path_194-2" data-name="Path 194" class="cls-3" d="M12.5,0V12.5H0Z" transform="translate(-473.72 -4492.6) rotate(110)"/>
      </g>
      <g id="Group_130" data-name="Group 130" transform="translate(16.269 16.167)">
        <g id="ic_lock_black_24px">
          <path id="Path_29" data-name="Path 29" class="cls-4" d="M0,0H22.571V22.571H0Z"/>
          <path id="Path_30" data-name="Path 30" class="cls-5" d="M17.166,7.583h-.94V5.7a4.7,4.7,0,0,0-9.4,0V7.583h-.94A1.886,1.886,0,0,0,4,9.464v9.4a1.886,1.886,0,0,0,1.881,1.881H17.166a1.886,1.886,0,0,0,1.881-1.881v-9.4A1.886,1.886,0,0,0,17.166,7.583Zm-2.727,0H8.608V5.7a2.915,2.915,0,0,1,5.831,0Z" transform="translate(-0.238 -0.06)"/>
        </g>
        <g class="cls-6" transform="matrix(1, 0, 0, 1, 483.35, 4480.71)">
          <rect id="Rectangle_125-2" data-name="Rectangle 125" class="cls-3" width="2.321" height="4.642" rx="1.16" transform="translate(-473.49 -4467.36)"/>
        </g>
      </g>
    </g>
    <rect id="Rectangle_188" data-name="Rectangle 188" class="cls-4" width="71.5" height="71.5" rx="35.75" transform="translate(1046 1810)"/>
  </g>
</svg>
